% (c) 2012 Dimitrios Vrettos - d.vrettos@gmail.com

\begin{tikzpicture}[x=5mm,y=5mm]
\matrix (a)[matrix of nodes, nodes in empty cells,nodes={ text width=8mm, text depth=1mm, text centered}]{
&1&0&0&$-8$\\
2&&2&4&8\\
&1&2&4&/\\
};  
\begin{scope}[blue]
\draw(a-1-2.north west)--(a-3-1.south east);
\draw(a-2-1.south west)--(a-2-5.south east);
\draw(a-1-4.north east)--(a-3-4.south east);
      \end{scope}
\end{tikzpicture}