% (c) 2014 Daniele Zambelli - daniele.zambelli@gmail.com

%%%
% Segno di un polinomio: crescente, zero=4.
%%%%
 
\begin{tikzpicture}[x=1.5mm, y=1.5mm, smooth]

\input{\folder lbr/lib_rettacre.pgf}
\node [above] {$4$};

\end{tikzpicture}
