% (c) 2014 Daniele Zambelli - daniele.zambelli@gmail.com

%%%
% Retta crescente zero in 0
%%%%
 
\begin{tikzpicture}[x=1.5mm, y=1.5mm, smooth]

\input{\folder lbr/lib_rettacre.pgf}
\node [above] (0, 0) {$0$};

\end{tikzpicture}
