% (c) 2014 Daniele Zambelli - daniele.zambelli@gmail.com

\begin{tikzpicture}[x=11mm,y=11mm, font=\small, cap=round, >=latex, smooth]


\input{\folder lbr/lib_diseq_sin.pgf}

\diseqsin{.5}{1.73205080757 / 2}{30}{60}{120}{150}


\end{tikzpicture}