% (c) 2014 Daniele Zambelli - daniele.zambelli@gmail.com

%%%
% Altri punti allineati
%%%%
 
\begin{tikzpicture}[x=5mm, y=5mm, smooth]

% \clip (-.5, -.5) rectangle (3.9, 3.9);

\input{\folder lbr/lib03_pc05.pgf}

 \draw [-] [ultra thick,red!50!black] (-5.3, -2) -- (5.3, -2) node [below left] {s};
 \draw [-] [ultra thick,green!50!black] (-5.3, 3) -- (5.3, 3) node [below left] {t};

 \end{tikzpicture}