% (c) 2014 Daniele Zambelli - daniele.zambelli@gmail.com

%%%
% Altri punti allineati
%%%%
 
\begin{tikzpicture}[x=5mm, y=5mm, smooth]

% \clip (-.5, -.5) rectangle (3.9, 3.9);

\input{\folder lbr/lib03_pc05.pgf}

 \draw [-] [ultra thick,red!50!black] (-4, -5.3) -- (-4, 5.3) node [below left] {q};
 \draw [-] [ultra thick,green!50!black] (1, -5.3) -- (1, 5.3) node [below left] {r};

\end{tikzpicture}